{
	"commentStamp" : "",
	"super" : "Object",
	"category" : "CuOOra-model",
	"classinstvars" : [ ],
	"pools" : [ ],
	"classvars" : [ ],
	"instvars" : [
		"nombre",
		"descripcion"
	],
	"name" : "Topico",
	"type" : "normal"
}