{
	"commentStamp" : "",
	"super" : "Publicacion",
	"category" : "CuOOra-model",
	"classinstvars" : [ ],
	"pools" : [ ],
	"classvars" : [ ],
	"instvars" : [
		"titulo",
		"descripcion",
		"misRespuestas",
		"misTopico"
	],
	"name" : "Pregunta",
	"type" : "normal"
}