{
	"commentStamp" : "",
	"super" : "PublicacionTest",
	"category" : "CuOOra-Tests",
	"classinstvars" : [ ],
	"pools" : [ ],
	"classvars" : [ ],
	"instvars" : [ ],
	"name" : "PreguntaTest",
	"type" : "normal"
}